mc20_13TeV.545636.aMCPy8EG_tHjb125_4fl_gammagamma.deriv.DAOD_PHYSLITE.e8557_s3797_r13167_p6490
mc20_13TeV.545636.aMCPy8EG_tHjb125_4fl_gammagamma.deriv.DAOD_PHYSLITE.e8557_s3797_r13144_p6490
mc20_13TeV.545636.aMCPy8EG_tHjb125_4fl_gammagamma.deriv.DAOD_PHYSLITE.e8557_s3797_r13145_p6490
