mc20_13TeV.503013.MGPy8EG_hh_bbyy_vbf_novhh_l1cvv1cv0p5.deriv.DAOD_PHYSLITE.e8263_s3681_r13167_p6266
mc20_13TeV.503013.MGPy8EG_hh_bbyy_vbf_novhh_l1cvv1cv0p5.deriv.DAOD_PHYSLITE.e8263_s3681_r13144_p6266
mc20_13TeV.503013.MGPy8EG_hh_bbyy_vbf_novhh_l1cvv1cv0p5.deriv.DAOD_PHYSLITE.e8263_s3681_r13145_p6266
