mc23_13p6TeV.801347.Py8EG_A14NNPDF23LO_XHS_X600_S300_HyySbb.deriv.DAOD_PHYS.e8557_s4159_r15530_p6266
mc23_13p6TeV.801347.Py8EG_A14NNPDF23LO_XHS_X600_S300_HyySbb.deriv.DAOD_PHYS.e8557_s4162_r15540_p6266
mc23_13p6TeV.801366.Py8EG_A14NNPDF23LO_XHS_X750_S110_HyySbb.deriv.DAOD_PHYS.e8557_s4159_r15530_p6266
mc23_13p6TeV.801366.Py8EG_A14NNPDF23LO_XHS_X750_S110_HyySbb.deriv.DAOD_PHYS.e8557_s4162_r15540_p6266
mc23_13p6TeV.801941.Py8EG_A14NNPDF23LO_XHS_X900_S600_HyySbb.deriv.DAOD_PHYS.e8557_s4159_r15530_p6266
mc23_13p6TeV.801941.Py8EG_A14NNPDF23LO_XHS_X900_S600_HyySbb.deriv.DAOD_PHYS.e8557_s4162_r15540_p6266
